sim/dump.vcd
$date
	Tue Dec 23 16:35:02 2025
$end
$version
	QuestaSim Version 10.7c
$end
$timescale
	1ns
$end

$scope module uvm_root $end
$upscope $end

$scope module top $end

$scope module dut $end
$var wire 1 ! presetn $end
$var wire 1 " pclk $end
$var wire 1 # psel $end
$var wire 1 $ penable $end
$var wire 1 % pwrite $end
$var wire 1 & paddr [31] $end
$var wire 1 ' paddr [30] $end
$var wire 1 ( paddr [29] $end
$var wire 1 ) paddr [28] $end
$var wire 1 * paddr [27] $end
$var wire 1 + paddr [26] $end
$var wire 1 , paddr [25] $end
$var wire 1 - paddr [24] $end
$var wire 1 . paddr [23] $end
$var wire 1 / paddr [22] $end
$var wire 1 0 paddr [21] $end
$var wire 1 1 paddr [20] $end
$var wire 1 2 paddr [19] $end
$var wire 1 3 paddr [18] $end
$var wire 1 4 paddr [17] $end
$var wire 1 5 paddr [16] $end
$var wire 1 6 paddr [15] $end
$var wire 1 7 paddr [14] $end
$var wire 1 8 paddr [13] $end
$var wire 1 9 paddr [12] $end
$var wire 1 : paddr [11] $end
$var wire 1 ; paddr [10] $end
$var wire 1 < paddr [9] $end
$var wire 1 = paddr [8] $end
$var wire 1 > paddr [7] $end
$var wire 1 ? paddr [6] $end
$var wire 1 @ paddr [5] $end
$var wire 1 A paddr [4] $end
$var wire 1 B paddr [3] $end
$var wire 1 C paddr [2] $end
$var wire 1 D paddr [1] $end
$var wire 1 E paddr [0] $end
$var wire 1 F pwdata [31] $end
$var wire 1 G pwdata [30] $end
$var wire 1 H pwdata [29] $end
$var wire 1 I pwdata [28] $end
$var wire 1 J pwdata [27] $end
$var wire 1 K pwdata [26] $end
$var wire 1 L pwdata [25] $end
$var wire 1 M pwdata [24] $end
$var wire 1 N pwdata [23] $end
$var wire 1 O pwdata [22] $end
$var wire 1 P pwdata [21] $end
$var wire 1 Q pwdata [20] $end
$var wire 1 R pwdata [19] $end
$var wire 1 S pwdata [18] $end
$var wire 1 T pwdata [17] $end
$var wire 1 U pwdata [16] $end
$var wire 1 V pwdata [15] $end
$var wire 1 W pwdata [14] $end
$var wire 1 X pwdata [13] $end
$var wire 1 Y pwdata [12] $end
$var wire 1 Z pwdata [11] $end
$var wire 1 [ pwdata [10] $end
$var wire 1 \ pwdata [9] $end
$var wire 1 ] pwdata [8] $end
$var wire 1 ^ pwdata [7] $end
$var wire 1 _ pwdata [6] $end
$var wire 1 ` pwdata [5] $end
$var wire 1 a pwdata [4] $end
$var wire 1 b pwdata [3] $end
$var wire 1 c pwdata [2] $end
$var wire 1 d pwdata [1] $end
$var wire 1 e pwdata [0] $end
$var reg 32 f prdata [31:0] $end
$var reg 1 g pready $end
$var reg 1 h pslverr $end
$var integer 32 i state $end
$upscope $end
$upscope $end

$scope begin uvm_pkg $end
$var parameter 32 j UVM_HDL_MAX_WIDTH $end
$var parameter 32 k UVM_STREAMBITS $end
$var parameter 32 l UVM_RADIX $end
$var parameter 32 m UVM_MACRO_NUMFLAGS $end
$var parameter 32 n UVM_DEFAULT $end
$var parameter 32 o UVM_ALL_ON $end
$var parameter 32 p UVM_FLAGS_ON $end
$var parameter 32 q UVM_FLAGS_OFF $end
$var parameter 32 r UVM_COPY $end
$var parameter 32 s UVM_NOCOPY $end
$var parameter 32 t UVM_COMPARE $end
$var parameter 32 u UVM_NOCOMPARE $end
$var parameter 32 v UVM_PRINT $end
$var parameter 32 w UVM_NOPRINT $end
$var parameter 32 x UVM_RECORD $end
$var parameter 32 y UVM_NORECORD $end
$var parameter 32 z UVM_PACK $end
$var parameter 32 { UVM_NOPACK $end
$var parameter 32 | UVM_PHYSICAL $end
$var parameter 32 } UVM_ABSTRACT $end
$var parameter 32 ~ UVM_READONLY $end
$var parameter 32 !! UVM_NODEFPRINT $end
$var parameter 32 "! UVM_MACRO_EXTRAS $end
$var parameter 32 #! UVM_FLAGS $end
$var parameter 32 $! UVM_UNPACK $end
$var parameter 32 %! UVM_CHECK_FIELDS $end
$var parameter 32 &! UVM_END_DATA_EXTRA $end
$var parameter 32 '! UVM_START_FUNCS $end
$var parameter 32 (! UVM_SET $end
$var parameter 32 )! UVM_SETINT $end
$var parameter 32 *! UVM_SETOBJ $end
$var parameter 32 +! UVM_SETSTR $end
$var parameter 32 ,! UVM_END_FUNCS $end
$var parameter 32 -! UVM_STR_CRC_POLYNOMIAL $end
$var parameter 32 .! UVM_STDOUT $end
$var parameter 32 /! UVM_LINE_WIDTH $end
$var parameter 32 0! UVM_NUM_LINES $end
$var parameter 32 1! UVM_SMALL_STRING $end
$var parameter 32 2! UVM_LARGE_STRING $end
$var reg 1 3! uvm_start_uvm_declarations $end
$var integer 32 4! uvm_global_random_seed $end
$var integer 32 5! UVM_UNBOUNDED_CONNECTIONS $end

$scope function uvm_hdl_check_path $end
$var integer 32 6! uvm_hdl_check_path $end
$upscope $end

$scope function uvm_hdl_deposit $end
$var integer 32 7! uvm_hdl_deposit $end
$var reg 1024 8! value [1023:0] $end
$upscope $end

$scope function uvm_hdl_force $end
$var integer 32 9! uvm_hdl_force $end
$var reg 1024 :! value [1023:0] $end
$upscope $end

$scope task uvm_hdl_force_time $end
$var reg 1024 ;! value [1023:0] $end
$var time 64 <! force_time $end
$upscope $end

$scope function uvm_hdl_release_and_read $end
$var integer 32 =! uvm_hdl_release_and_read $end
$var reg 1024 >! value [1023:0] $end
$upscope $end

$scope function uvm_hdl_release $end
$var integer 32 ?! uvm_hdl_release $end
$upscope $end

$scope function uvm_hdl_read $end
$var integer 32 @! uvm_hdl_read $end
$var reg 1024 A! value [1023:0] $end
$upscope $end

$scope function uvm_dpi_get_next_arg_c $end
$upscope $end

$scope function uvm_dpi_get_tool_name_c $end
$upscope $end

$scope function uvm_dpi_get_tool_version_c $end
$upscope $end

$scope function uvm_dpi_get_next_arg $end
$upscope $end

$scope function uvm_dpi_get_tool_name $end
$upscope $end

$scope function uvm_dpi_get_tool_version $end
$upscope $end

$scope function uvm_dpi_regcomp $end
$upscope $end

$scope function uvm_dpi_regexec $end
$var integer 32 B! uvm_dpi_regexec $end
$upscope $end

$scope function uvm_dpi_regfree $end
$upscope $end

$scope function uvm_re_match $end
$var integer 32 C! uvm_re_match $end
$upscope $end

$scope function uvm_dump_re_cache $end
$upscope $end

$scope function uvm_glob_to_re $end
$upscope $end

$scope function uvm_revision_string $end
$upscope $end

$scope function uvm_radix_to_string $end
$var integer 32 D! radix $end
$upscope $end

$scope function uvm_instance_scope $end
$var reg 8 E! c [7:0] $end
$var integer 32 F! pos $end
$upscope $end

$scope function uvm_oneway_hash $end
$var integer 32 G! uvm_oneway_hash $end
$var integer 32 H! seed $end
$var reg 1 I! msb $end
$var reg 8 J! current_byte [7:0] $end
$var reg 32 K! crc1 [31:0] $end
$upscope $end

$scope function uvm_create_random_seed $end
$var integer 32 L! uvm_create_random_seed $end
$upscope $end

$scope function uvm_object_value_str $end
$upscope $end

$scope function uvm_leaf_scope $end
$var reg 8 M! scope_separator [7:0] $end
$var reg 8 N! bracket_match [7:0] $end
$var integer 32 O! pos $end
$var integer 32 P! bmatches $end
$upscope $end

$scope function uvm_vector_to_string $end
$var reg 4096 Q! value [4095:0] $end
$var integer 32 R! size $end
$var integer 32 S! radix $end
$upscope $end

$scope function uvm_get_array_index_int $end
$var integer 32 T! uvm_get_array_index_int $end
$var reg 1 U! is_wildcard $end
$var integer 32 V! i $end
$upscope $end

$scope function uvm_get_array_index_string $end
$var reg 1 W! is_wildcard $end
$var integer 32 X! i $end
$upscope $end

$scope function uvm_is_array $end
$var reg 1 Y! uvm_is_array $end
$upscope $end

$scope function uvm_has_wildcard $end
$upscope $end

$scope task run_test $end
$upscope $end

$scope function global_stop_request $end
$upscope $end

$scope function set_global_timeout $end
$var time 64 Z! timeout $end
$var reg 1 [! overridable $end
$upscope $end

$scope function set_global_stop_timeout $end
$var time 64 \! timeout $end
$upscope $end

$scope function uvm_report_enabled $end
$var reg 1 ]! uvm_report_enabled $end
$var integer 32 ^! verbosity $end
$var reg 2 _! severity [1:0] $end
$upscope $end

$scope function uvm_report $end
$var reg 2 `! severity [1:0] $end
$var integer 32 a! verbosity $end
$var integer 32 b! line $end
$upscope $end

$scope function uvm_report_info $end
$var integer 32 c! verbosity $end
$var integer 32 d! line $end
$upscope $end

$scope function uvm_report_warning $end
$var integer 32 e! verbosity $end
$var integer 32 f! line $end
$upscope $end

$scope function uvm_report_error $end
$var integer 32 g! verbosity $end
$var integer 32 h! line $end
$upscope $end

$scope function uvm_report_fatal $end
$var integer 32 i! verbosity $end
$var integer 32 j! line $end
$upscope $end

$scope function uvm_string_to_severity $end
$var reg 1 k! uvm_string_to_severity $end
$var reg 2 l! sev [1:0] $end
$upscope $end

$scope function uvm_string_to_action $end
$upscope $end

$scope function set_config_int $end
$var reg 4096 m! value [4095:0] $end
$upscope $end

$scope function set_config_object $end
$var reg 1 n! clone $end
$upscope $end

$scope function set_config_string $end
$upscope $end

$scope function uvm_is_match $end
$var reg 1 o! uvm_is_match $end
$upscope $end

$scope function uvm_string_to_bits $end
$var reg 115200 p! uvm_string_to_bits [115199:0] $end
$upscope $end

$scope function uvm_bits_to_string $end
$var reg 115200 q! str [115199:0] $end
$upscope $end

$scope task uvm_wait_for_nba_region $end
$var integer 32 r! nba $end
$var integer 32 s! next_nba $end
$upscope $end

$scope function uvm_split_string $end
$upscope $end

$scope function uvm_hdl_concat2string $end
$upscope $end
$upscope $end

$scope begin apb_ram_pkg $end
$upscope $end

$scope begin top_sv_unit $end
$upscope $end

$scope begin std $end
$upscope $end

$scope begin questa_uvm_pkg $end
$upscope $end
$enddefinitions $end
#0
$dumpvars
0W!
0Y!
0k!
b0 l!
bx p!
bx q!
bx 8!
bx :!
bx ;!
bx >!
bx A!
13!
0I!
b1110010 J!
b1011011100100111001111000011010 K!
b1 Q!
0U!
0[!
0]!
b0 _!
b0 `!
bx m!
0n!
0o!
bx f
xg
xh
b10000000000 j
b1000000000000 k
b1111000000000000000000000000 l
b10001 m
b10101010101 n
b101010101 o
b101010101 p
b0 q
b1 r
b10 s
b100 t
b1000 u
b10000 v
b100000 w
b1000000 x
b10000000 y
b100000000 z
b1000000000 {
b10000000000000 |
b100000000000000 }
b1000000000000000 ~
b10000000000000000 !!
b100000000000000000 "!
b100000000000000001 #!
b100000000000000010 $!
b100000000000000011 %!
b100000000000000100 &!
b100000000000000101 '!
b100000000000000110 (!
b100000000000000110 )!
b100000000000000111 *!
b100000000000001000 +!
b100000000000001000 ,!
b100110000010001110110110110 -!
b1 .!
b1111000 /!
b1111000 0!
b1110111111 1!
b11100000111111111 2!
b0 D!
b101110 M!
b0 N!
b10010 O!
b11111111111111111111111111111111 P!
b0 X!
b0 6!
b0 7!
b0 9!
b0 =!
b0 ?!
b0 @!
b1 B!
b0 C!
b1101001011000001111100000011110 4!
b101110 E!
b111 F!
b1001110110000100110010011000010 G!
b1101001011000001111100000011110 H!
b1011001101111011110011100010000 L!
b100000 R!
b10000000000000000000000000 S!
b0 T!
b0 V!
b111110100 ^!
b0 a!
b0 b!
b11001000 c!
b11011000 d!
b0 e!
b0 f!
b0 g!
b0 h!
b0 i!
b0 j!
b100011 r!
b100011 s!
b11111111111111111111111111111111 5!
b0 i
bx <!
bx Z!
bx \!
0!
0"
0#
0$
0%
0E
0D
0C
0B
0A
0@
0?
0>
0=
0<
0;
0:
09
08
07
06
05
04
03
02
01
00
0/
0.
0-
0,
0+
0*
0)
0(
0'
0&
0e
0d
0c
0b
0a
0`
0_
0^
0]
0\
0[
0Z
0Y
0X
0W
0V
0U
0T
0S
0R
0Q
0P
0O
0N
0M
0L
0K
0J
0I
0H
0G
0F
$end
#10
1"
b0 f
0g
0h
#20
0"
#30
1"
#40
0"
#50
1"
#60
0"
#70
1"
#80
0"
#90
1"
b100100 s!
b100100 r!
1#
1E
1D
1C
1B
1A
1@
1?
1>
1=
1<
1;
1:
19
18
17
16
15
14
13
12
11
10
1/
1.
1-
1,
1+
1*
1)
1(
1'
1&
1!
#100
0"
#110
1"
b1 i
1$
#120
0"
#130
1"
b10 i
#140
0"
#150
1"
b11 i
1g
1h
bx f
#160
0"
#170
1"
b1 i
0g
0h
b100101 s!
b100101 r!
0$
#180
0"
#190
b1001110110000100110010011000011 L!
b100110 s!
b100110 r!
1"
b10 i
0!
0E
0D
0C
0B
0A
0@
0?
0>
0=
0<
0;
0:
09
08
07
06
05
04
03
02
01
00
0/
0.
0-
0,
0+
0*
0)
0(
0'
0&
0#
#200
0"
#210
1"
b100111 s!
b1001110110000100110010011000101 L!
b0 i
b0 f
b100111 r!
1#
1e
1d
1c
1a
1]
1\
1[
1Z
1Y
1W
1U
1T
1S
1Q
1P
1M
1L
1K
1J
1I
1H
1G
1F
1E
1D
1C
1B
1A
1@
1?
1>
1=
1<
1;
1:
19
18
17
16
15
14
13
12
11
10
1/
1.
1-
1,
1+
1*
1)
1(
1'
1&
1!
1%
#220
0"
#230
1"
b1 i
1$
#240
0"
#250
1"
b10 i
#260
0"
#270
1"
b11 i
1g
1h
#280
0"
#290
1"
b1 i
0g
0h
b101000 s!
b101000 r!
0$
#300
0"
#310
b1001110110000100110010011001000 L!
b101001 s!
b101001 r!
1"
b10 i
0!
0e
0d
0c
0a
0]
0\
0[
0Z
0Y
0W
0U
0T
0S
0Q
0P
0M
0L
0K
0J
0I
0H
0G
0F
0E
0D
0C
0B
0A
0@
0?
0>
0=
0<
0;
0:
09
08
07
06
05
04
03
02
01
00
0/
0.
0-
0,
0+
0*
0)
0(
0'
0&
0%
0#
#320
0"
#330
1"
b101010 s!
b1001110110000100110010011001100 L!
b0 i
b101010 r!
#340
0"
#350
1"
b101011 s!
b101011 r!
#360
0"
#370
b1001110110000100110010011010001 L!
b101100 s!
b101100 r!
1"
#380
0"
#390
1"
b101101 s!
b1001110110000100110010011010111 L!
b101101 r!
1#
1E
1D
1C
1B
1A
1@
1?
1>
1=
1<
1;
1:
19
18
17
16
15
14
13
12
11
10
1/
1.
1-
1,
1+
1*
1)
1(
1'
1&
1!
#400
0"
#410
1"
b1 i
1$
#420
0"
#430
1"
b10 i
#440
0"
#450
1"
b11 i
1g
1h
bx f
#460
0"
#470
1"
b1 i
0g
0h
b101110 s!
b101110 r!
0$
#480
0"
#490
b1001110110000100110010011011110 L!
b101111 s!
b101111 r!
1"
b10 i
0!
0E
0D
0C
0B
0A
0@
0?
0>
0=
0<
0;
0:
09
08
07
06
05
04
03
02
01
00
0/
0.
0-
0,
0+
0*
0)
0(
0'
0&
0#
#500
0"
#510
1"
b110000 s!
b1001110110000100110010011100110 L!
b0 i
b0 f
b110000 r!
#520
0"
#530
1"
b110001 s!
b110001 r!
#540
0"
#550
b1001110110000100110010011101111 L!
b110010 s!
b110010 r!
1"
#560
0"
#570
1"
b110011 s!
b1001110110000100110010011111001 L!
b110011 r!
1#
1e
1c
1_
1^
1\
1[
1Z
1Y
1U
1T
1R
1Q
1L
1K
1I
1F
1E
1D
1C
1B
1A
1@
1?
1>
1=
1<
1;
1:
19
18
17
16
15
14
13
12
11
10
1/
1.
1-
1,
1+
1*
1)
1(
1'
1&
1!
1%
#580
0"
#590
1"
b1 i
1$
#600
0"
#610
1"
b10 i
#620
0"
#630
1"
b11 i
1g
1h
#640
0"
#650
1"
b1 i
0g
0h
b110100 s!
b110100 r!
0$
#660
0"
#670
b1001110110000100110010100000100 L!
b110101 s!
b110101 r!
1"
b10 i
0!
0e
0c
0_
0^
0\
0[
0Z
0Y
0U
0T
0R
0Q
0L
0K
0I
0F
0E
0D
0C
0B
0A
0@
0?
0>
0=
0<
0;
0:
09
08
07
06
05
04
03
02
01
00
0/
0.
0-
0,
0+
0*
0)
0(
0'
0&
0%
0#
#680
0"
#690
1"
b110110 s!
b1001110110000100110010100010000 L!
b0 i
b110110 r!
#700
0"
#710
1"
b110111 s!
b110111 r!
#720
0"
#730
b1001110110000100110010100011101 L!
b111000 s!
b111000 r!
1"
#740
0"
#750
1"
b111001 s!
b1001110110000100110010100101011 L!
b111001 r!
#760
0"
#770
1"
b111010 s!
b111010 r!
#780
0"
#790
b1001110110000100110010100111010 L!
b111011 s!
b111011 r!
1"
#800
0"
#810
1"
b111100 s!
b1001110110000100110010101001010 L!
b111100 r!
1#
1e
1_
1^
1\
1[
1Z
1Y
1W
1V
1T
1R
1P
1O
1N
1L
1E
1D
1C
1B
1A
1@
1?
1>
1=
1<
1;
1:
19
18
17
16
15
14
13
12
11
10
1/
1.
1-
1,
1+
1*
1)
1(
1'
1&
1!
1%
#820
0"
#830
1"
b1 i
1$
#840
0"
#850
1"
b10 i
#860
0"
#870
1"
b11 i
1g
1h
#880
0"
#890
1"
b1 i
0g
0h
b111101 s!
b111101 r!
0$
#900
0"
#910
b1001110110000100110010101011011 L!
b111110 s!
b111110 r!
1"
b10 i
0E
0D
0C
0B
0A
0@
0?
0>
0=
0<
0;
0:
09
08
07
06
05
04
03
02
01
00
0/
0.
0-
0,
0+
0*
0)
0(
0'
0&
0%
#920
0"
#930
1"
b1 i
1$
#940
0"
#950
1"
b10 i
#960
0"
#970
1"
b11 i
1g
#980
0"
#990
1"
b1 i
0g
b111111 s!
b1001110110000100110010101101101 L!
b111111 r!
0$
1E
1D
1C
1B
1A
1@
1?
1>
1=
1<
1;
1:
19
18
17
16
15
14
13
12
11
10
1/
1.
1-
1,
1+
1*
1)
1(
1'
1&
#1000
0"
#1010
1"
b10 i
1$
#1020
0"
#1030
1"
b11 i
1g
1h
bx f
#1040
0"
#1050
1"
b1 i
0g
0h
b1000000 s!
b1000000 r!
0$
#1060
0"
#1070
b1001110110000100110010110000000 L!
b1000001 s!
b1000001 r!
1"
b10 i
0E
0D
0C
0B
0A
0@
0?
0>
0=
0<
0;
0:
09
08
07
06
05
04
03
02
01
00
0/
0.
0-
0,
0+
0*
0)
0(
0'
0&
#1080
0"
#1090
1"
b1 i
1$
#1100
0"
#1110
1"
b10 i
#1120
0"
#1130
1"
b0 f
b11 i
1g
#1140
0"
#1150
1"
b1 i
0g
b1000010 s!
b1000011 s!
b1000100 s!
b1000010 r!
b1000011 r!
b1000100 r!
0$
b1000101 s!
b1000110 s!
b1000101 r!
b1000110 r!
b1011001101111011110011100100010 L!
b1010111001100000001010110100 L!
b11110001111001110101100010110001 L!
b10110111111101010000110100010 L!
b10000000000111100011101110010110 L!
b1011000101000101010010100111110 L!
b101010000000011001110010100111 L!
b11111010111011100000001010111001 L!
b10001101101111100001001011001100 L!
b110001011001111100001000 L!
b110110010111111000000111110011 L!
b11001110000010111010100010011010 L!
b11010011010000011101001100111111 L!
b1001011011101000010000010110 L!
b11111110000101001100001100000000 L!
b1001000001000100010011110010001 L!
b11011110000110111110100100100100 L!
b1000001111111010101001000010111 L!
b110001011010100100101101011 L!
b10001101110001010000100101000100 L!
b10011010001110110100010001010 L!
b1111001110111010111110101110111 L!
b10110100000001111011000110101001 L!
b1010101010110101001011100110010 L!
b10100010000010011100111101111010 L!
b111000011000110011100110101111 L!
b11011100000111001000010000111110 L!
b1011001101111011110011100110101 L!
b1010111001100000001011000111 L!
b11110001111001110101100011000100 L!
b10110111111101010000110110101 L!
b10000000000111100011101110101001 L!
b1011000101000101010010101010001 L!
b101010000000011001110010111010 L!
b11111010111011100000001011001100 L!
b10001101101111100001001011011111 L!
b110001011001111100011011 L!
b110110010111111000001000000110 L!
b11001110000010111010100010101101 L!
b11010011010000011101001101010010 L!
b1001011011101000010000101001 L!
b11111110000101001100001100010011 L!
b1001000001000100010011110100100 L!
b11011110000110111110100100110111 L!
b1000001111111010101001000101010 L!
b110001011010100100101111110 L!
b10001101110001010000100101010111 L!
b10011010001110110100010011101 L!
b1111001110111010111110110001010 L!
b10110100000001111011000110111100 L!
b1010101010110101001011101000101 L!
b10100010000010011100111110001101 L!
b111000011000110011100111000010 L!
b11011100000111001000010001010001 L!
b1011001101111011110011101001001 L!
b1010111001100000001011011011 L!
b11110001111001110101100011011000 L!
b10110111111101010000111001001 L!
b10000000000111100011101110111101 L!
b1011000101000101010010101100101 L!
b101010000000011001110011001110 L!
b11111010111011100000001011100000 L!
b10001101101111100001001011110011 L!
b110001011001111100101111 L!
b110110010111111000001000011010 L!
b11001110000010111010100011000001 L!
b11010011010000011101001101100110 L!
b1001011011101000010000111101 L!
b11111110000101001100001100100111 L!
b1001000001000100010011110111000 L!
b11011110000110111110100101001011 L!
b1000001111111010101001000111110 L!
b110001011010100100110010010 L!
b10001101110001010000100101101011 L!
b10011010001110110100010110001 L!
b1111001110111010111110110011110 L!
b10110100000001111011000111010000 L!
b1010101010110101001011101011001 L!
b10100010000010011100111110100001 L!
b111000011000110011100111010110 L!
b11011100000111001000010001100101 L!
b11011100000111001000010001111010 L!
b111000011000110011100111101011 L!
b10100010000010011100111110110110 L!
b10001101110001010000100110000000 L!
b11110001111001110101100011101101 L!
b1011001101111011110011101011110 L!
b1010111001100000001011110000 L!
b10000000000111100011101111010010 L!
b10110111111101010000111011110 L!
b110001011010100100110100111 L!
b110001011001111101000100 L!
b1011000101000101010010101111010 L!
b101010000000011001110011100011 L!
b11111010111011100000001011110101 L!
b10001101101111100001001100001000 L!
b110110010111111000001000101111 L!
b11001110000010111010100011010110 L!
b1000001111111010101001001010011 L!
b11010011010000011101001101111011 L!
b1001011011101000010001010010 L!
b11111110000101001100001100111100 L!
b1001000001000100010011111001101 L!
b11011110000110111110100101100000 L!
b1111001110111010111110110110011 L!
b10011010001110110100011000110 L!
b1010101010110101001011101101110 L!
b10110100000001111011000111100101 L!
