sim/logs/write_err_test.log
# vsim -c -coverage top "+UVM_TESTNAME=write_err_test" -voptargs="+acc" -l logs/write_err_test.log -do "coverage save -onexit cov/write_err_test.ucdb; run -all; quit -f" 
# Start time: 16:34:21 on Dec 23,2025
# ** Note: (vsim-8009) Loading existing optimized design _opt
# //  Questa Sim-64
# //  Version 10.7c win64 Aug 18 2018
# //
# //  Copyright 1991-2018 Mentor Graphics Corporation
# //  All Rights Reserved.
# //
# //  QuestaSim and its associated documentation contain trade
# //  secrets and commercial or financial information that are the property of
# //  Mentor Graphics Corporation and are privileged, confidential,
# //  and exempt from disclosure under the Freedom of Information Act,
# //  5 U.S.C. Section 552. Furthermore, this information
# //  is prohibited from disclosure under the Trade Secrets Act,
# //  18 U.S.C. Section 1905.
# //
# Loading sv_std.std
# Loading work.apb_if(fast)
# Loading mtiUvm.uvm_pkg
# Loading work.apb_ram_pkg(fast)
# Loading work.top_sv_unit(fast)
# Loading work.top(fast)
# Loading work.apb_if(fast)
# Loading work.apb_ram(fast)
# Loading mtiUvm.questa_uvm_pkg(fast)
# Loading D:/questasim_b_install/uvm-1.1d\win64\uvm_dpi.dll
# coverage save -onexit cov/write_err_test.ucdb
#  run -all
# ----------------------------------------------------------------
# UVM-1.1d
# (C) 2007-2013 Mentor Graphics Corporation
# (C) 2007-2013 Cadence Design Systems, Inc.
# (C) 2006-2013 Synopsys, Inc.
# (C) 2011-2013 Cypress Semiconductor Corp.
# ----------------------------------------------------------------
# 
#   ***********       IMPORTANT RELEASE NOTES         ************
# 
#   You are using a version of the UVM library that has been compiled
#   with `UVM_NO_DEPRECATED undefined.
#   See http://www.eda.org/svdb/view.php?id=3313 for more details.
# 
#   You are using a version of the UVM library that has been compiled
#   with `UVM_OBJECT_MUST_HAVE_CONSTRUCTOR undefined.
#   See http://www.eda.org/svdb/view.php?id=3770 for more details.
# 
#       (Specify +UVM_NO_RELNOTES to turn off this notice)
# 
# UVM_INFO verilog_src/questa_uvm_pkg-1.2/src/questa_uvm_pkg.sv(215) @ 0: reporter [Questa UVM] QUESTA_UVM-1.2.3
# UVM_INFO verilog_src/questa_uvm_pkg-1.2/src/questa_uvm_pkg.sv(216) @ 0: reporter [Questa UVM]  questa_uvm::init(+struct)
# UVM_INFO @ 0: reporter [RNTST] Running test write_err_test...
# UVM_INFO @ 0: reporter [UVMTOP] UVM testbench topology:
# --------------------------------------------------------------
# Name                       Type                    Size  Value
# --------------------------------------------------------------
# uvm_test_top               write_err_test          -     @471 
#   env                      apb_ram_env             -     @478 
#     a                      apb_ram_agent           -     @485 
#       d                    apb_ram_driver          -     @523 
#         rsp_port           uvm_analysis_port       -     @538 
#         seq_item_port      uvm_seq_item_pull_port  -     @530 
#       m                    apb_ram_monitor         -     @516 
#         item_send_port     uvm_analysis_port       -     @664 
#       seqr                 uvm_sequencer           -     @546 
#         rsp_export         uvm_analysis_export     -     @553 
#         seq_item_export    uvm_seq_item_pull_imp   -     @647 
#         arbitration_queue  array                   0     -    
#         lock_queue         array                   0     -    
#         num_last_reqs      integral                32    'd1  
#         num_last_rsps      integral                32    'd1  
#     cov                    apb_ram_coverage        -     @499 
#       analysis_imp         uvm_analysis_imp        -     @506 
#     s                      apb_ram_scoreboard      -     @492 
#       item_recv_imp        uvm_analysis_imp        -     @678 
# --------------------------------------------------------------
# 
# UVM_INFO ../uvc/env/apb_ram_driver.sv(32) @ 0: uvm_test_top.env.a.d [DRV] System Reset : Start of Simulation
# UVM_INFO ../uvc/env/apb_ram_driver.sv(32) @ 10: uvm_test_top.env.a.d [DRV] System Reset : Start of Simulation
# UVM_INFO ../uvc/env/apb_ram_scoreboard.sv(23) @ 10: uvm_test_top.env.s [SCO] SYSTEM RESET DETECTED
# ----------------------------------------------------------------
# UVM_INFO ../uvc/env/apb_ram_scoreboard.sv(23) @ 30: uvm_test_top.env.s [SCO] SYSTEM RESET DETECTED
# ----------------------------------------------------------------
# UVM_INFO ../uvc/env/apb_ram_driver.sv(32) @ 30: uvm_test_top.env.a.d [DRV] System Reset : Start of Simulation
# UVM_INFO ../uvc/env/apb_ram_driver.sv(32) @ 50: uvm_test_top.env.a.d [DRV] System Reset : Start of Simulation
# UVM_INFO ../uvc/env/apb_ram_scoreboard.sv(23) @ 50: uvm_test_top.env.s [SCO] SYSTEM RESET DETECTED
# ----------------------------------------------------------------
# UVM_INFO ../uvc/env/apb_ram_scoreboard.sv(23) @ 70: uvm_test_top.env.s [SCO] SYSTEM RESET DETECTED
# ----------------------------------------------------------------
# UVM_INFO ../uvc/env/apb_ram_driver.sv(32) @ 70: uvm_test_top.env.a.d [DRV] System Reset : Start of Simulation
# UVM_INFO ../uvc/env/apb_ram_scoreboard.sv(23) @ 90: uvm_test_top.env.s [SCO] SYSTEM RESET DETECTED
# ----------------------------------------------------------------
# UVM_INFO ../uvc/env/apb_ram_driver.sv(64) @ 110: uvm_test_top.env.a.d [DRV] mode:writed, addr:41, wdata:3777248807, rdata:0, slverr:0
# UVM_INFO ../uvc/env/apb_ram_scoreboard.sv(29) @ 170: uvm_test_top.env.s [SCO] SLV ERROR during WRITE OP
# ----------------------------------------------------------------
# UVM_INFO ../uvc/env/apb_ram_driver.sv(64) @ 190: uvm_test_top.env.a.d [DRV] mode:writed, addr:70, wdata:2285552022, rdata:0, slverr:0
# UVM_INFO ../uvc/env/apb_ram_scoreboard.sv(29) @ 230: uvm_test_top.env.s [SCO] SLV ERROR during WRITE OP
# ----------------------------------------------------------------
# UVM_INFO ../uvc/env/apb_ram_driver.sv(64) @ 250: uvm_test_top.env.a.d [DRV] mode:writed, addr:90, wdata:4281818903, rdata:0, slverr:0
# UVM_INFO ../uvc/env/apb_ram_scoreboard.sv(29) @ 290: uvm_test_top.env.s [SCO] SLV ERROR during WRITE OP
# ----------------------------------------------------------------
# UVM_INFO ../uvc/env/apb_ram_driver.sv(64) @ 310: uvm_test_top.env.a.d [DRV] mode:writed, addr:84, wdata:1051481594, rdata:0, slverr:0
# UVM_INFO ../uvc/env/apb_ram_scoreboard.sv(29) @ 350: uvm_test_top.env.s [SCO] SLV ERROR during WRITE OP
# ----------------------------------------------------------------
# UVM_INFO ../uvc/env/apb_ram_driver.sv(64) @ 370: uvm_test_top.env.a.d [DRV] mode:writed, addr:63, wdata:1430793613, rdata:0, slverr:0
# UVM_INFO ../uvc/env/apb_ram_scoreboard.sv(29) @ 410: uvm_test_top.env.s [SCO] SLV ERROR during WRITE OP
# ----------------------------------------------------------------
# UVM_INFO ../uvc/env/apb_ram_driver.sv(64) @ 430: uvm_test_top.env.a.d [DRV] mode:writed, addr:54, wdata:3171452607, rdata:0, slverr:0
# UVM_INFO ../uvc/env/apb_ram_scoreboard.sv(29) @ 470: uvm_test_top.env.s [SCO] SLV ERROR during WRITE OP
# ----------------------------------------------------------------
# UVM_INFO ../uvc/env/apb_ram_driver.sv(64) @ 490: uvm_test_top.env.a.d [DRV] mode:writed, addr:64, wdata:2337079852, rdata:0, slverr:0
# UVM_INFO ../uvc/env/apb_ram_scoreboard.sv(29) @ 530: uvm_test_top.env.s [SCO] SLV ERROR during WRITE OP
# ----------------------------------------------------------------
# UVM_INFO ../uvc/env/apb_ram_driver.sv(64) @ 550: uvm_test_top.env.a.d [DRV] mode:writed, addr:81, wdata:3353941321, rdata:0, slverr:0
# UVM_INFO ../uvc/env/apb_ram_scoreboard.sv(29) @ 590: uvm_test_top.env.s [SCO] SLV ERROR during WRITE OP
# ----------------------------------------------------------------
# UVM_INFO ../uvc/env/apb_ram_driver.sv(64) @ 610: uvm_test_top.env.a.d [DRV] mode:writed, addr:47, wdata:2729742768, rdata:0, slverr:0
# UVM_INFO ../uvc/env/apb_ram_scoreboard.sv(29) @ 650: uvm_test_top.env.s [SCO] SLV ERROR during WRITE OP
# ----------------------------------------------------------------
# UVM_INFO ../uvc/env/apb_ram_driver.sv(64) @ 670: uvm_test_top.env.a.d [DRV] mode:writed, addr:66, wdata:2528254870, rdata:0, slverr:0
# UVM_INFO ../uvc/env/apb_ram_scoreboard.sv(29) @ 710: uvm_test_top.env.s [SCO] SLV ERROR during WRITE OP
# ----------------------------------------------------------------
# UVM_INFO ../uvc/env/apb_ram_driver.sv(64) @ 730: uvm_test_top.env.a.d [DRV] mode:writed, addr:68, wdata:2518359749, rdata:0, slverr:0
# UVM_INFO ../uvc/env/apb_ram_scoreboard.sv(29) @ 770: uvm_test_top.env.s [SCO] SLV ERROR during WRITE OP
# ----------------------------------------------------------------
# UVM_INFO ../uvc/env/apb_ram_driver.sv(64) @ 790: uvm_test_top.env.a.d [DRV] mode:writed, addr:85, wdata:1888893185, rdata:0, slverr:0
# UVM_INFO ../uvc/env/apb_ram_scoreboard.sv(29) @ 830: uvm_test_top.env.s [SCO] SLV ERROR during WRITE OP
# ----------------------------------------------------------------
# UVM_INFO ../uvc/env/apb_ram_driver.sv(64) @ 850: uvm_test_top.env.a.d [DRV] mode:writed, addr:68, wdata:2912452960, rdata:0, slverr:0
# UVM_INFO ../uvc/env/apb_ram_scoreboard.sv(29) @ 890: uvm_test_top.env.s [SCO] SLV ERROR during WRITE OP
# ----------------------------------------------------------------
# UVM_INFO ../uvc/env/apb_ram_driver.sv(64) @ 910: uvm_test_top.env.a.d [DRV] mode:writed, addr:70, wdata:4191012750, rdata:0, slverr:0
# UVM_INFO ../uvc/env/apb_ram_scoreboard.sv(29) @ 950: uvm_test_top.env.s [SCO] SLV ERROR during WRITE OP
# ----------------------------------------------------------------
# UVM_INFO ../uvc/env/apb_ram_driver.sv(64) @ 970: uvm_test_top.env.a.d [DRV] mode:writed, addr:40, wdata:3892367503, rdata:0, slverr:0
# UVM_INFO ../uvc/env/apb_ram_scoreboard.sv(29) @ 1010: uvm_test_top.env.s [SCO] SLV ERROR during WRITE OP
# ----------------------------------------------------------------
# UVM_INFO ../uvc/env/apb_ram_driver.sv(64) @ 1030: uvm_test_top.env.a.d [DRV] mode:writed, addr:45, wdata:1981648891, rdata:0, slverr:0
# UVM_INFO ../uvc/env/apb_ram_scoreboard.sv(29) @ 1070: uvm_test_top.env.s [SCO] SLV ERROR during WRITE OP
# ----------------------------------------------------------------
# UVM_INFO ../uvc/env/apb_ram_driver.sv(64) @ 1090: uvm_test_top.env.a.d [DRV] mode:writed, addr:75, wdata:48946881, rdata:0, slverr:0
# UVM_INFO ../uvc/env/apb_ram_scoreboard.sv(29) @ 1130: uvm_test_top.env.s [SCO] SLV ERROR during WRITE OP
# ----------------------------------------------------------------
# UVM_INFO ../uvc/env/apb_ram_driver.sv(64) @ 1150: uvm_test_top.env.a.d [DRV] mode:writed, addr:88, wdata:3254385158, rdata:0, slverr:0
# UVM_INFO ../uvc/env/apb_ram_scoreboard.sv(29) @ 1190: uvm_test_top.env.s [SCO] SLV ERROR during WRITE OP
# ----------------------------------------------------------------
# UVM_INFO ../uvc/env/apb_ram_driver.sv(64) @ 1210: uvm_test_top.env.a.d [DRV] mode:writed, addr:70, wdata:3524547497, rdata:0, slverr:0
# UVM_INFO ../uvc/env/apb_ram_scoreboard.sv(29) @ 1250: uvm_test_top.env.s [SCO] SLV ERROR during WRITE OP
# ----------------------------------------------------------------
# UVM_INFO ../uvc/env/apb_ram_driver.sv(64) @ 1270: uvm_test_top.env.a.d [DRV] mode:writed, addr:92, wdata:3483282630, rdata:0, slverr:0
# UVM_INFO ../uvc/env/apb_ram_scoreboard.sv(29) @ 1310: uvm_test_top.env.s [SCO] SLV ERROR during WRITE OP
# ----------------------------------------------------------------
# UVM_INFO ../uvc/env/apb_ram_driver.sv(64) @ 1330: uvm_test_top.env.a.d [DRV] mode:writed, addr:94, wdata:2414337454, rdata:0, slverr:0
# UVM_INFO ../uvc/env/apb_ram_scoreboard.sv(29) @ 1370: uvm_test_top.env.s [SCO] SLV ERROR during WRITE OP
# ----------------------------------------------------------------
# UVM_INFO ../uvc/env/apb_ram_driver.sv(64) @ 1390: uvm_test_top.env.a.d [DRV] mode:writed, addr:73, wdata:114161314, rdata:0, slverr:0
# UVM_INFO ../uvc/env/apb_ram_scoreboard.sv(29) @ 1430: uvm_test_top.env.s [SCO] SLV ERROR during WRITE OP
# ----------------------------------------------------------------
# UVM_INFO ../uvc/env/apb_ram_driver.sv(64) @ 1450: uvm_test_top.env.a.d [DRV] mode:writed, addr:32, wdata:2384080836, rdata:0, slverr:0
# UVM_INFO ../uvc/env/apb_ram_scoreboard.sv(29) @ 1490: uvm_test_top.env.s [SCO] SLV ERROR during WRITE OP
# ----------------------------------------------------------------
# UVM_INFO ../uvc/env/apb_ram_driver.sv(64) @ 1510: uvm_test_top.env.a.d [DRV] mode:writed, addr:35, wdata:616727898, rdata:0, slverr:0
# UVM_INFO ../uvc/env/apb_ram_scoreboard.sv(29) @ 1550: uvm_test_top.env.s [SCO] SLV ERROR during WRITE OP
# ----------------------------------------------------------------
# UVM_INFO ../uvc/env/apb_ram_driver.sv(64) @ 1570: uvm_test_top.env.a.d [DRV] mode:writed, addr:71, wdata:4230033719, rdata:0, slverr:0
# UVM_INFO ../uvc/env/apb_ram_scoreboard.sv(29) @ 1610: uvm_test_top.env.s [SCO] SLV ERROR during WRITE OP
# ----------------------------------------------------------------
# UVM_INFO ../uvc/env/apb_ram_driver.sv(64) @ 1630: uvm_test_top.env.a.d [DRV] mode:writed, addr:56, wdata:3617292467, rdata:0, slverr:0
# UVM_INFO ../uvc/env/apb_ram_scoreboard.sv(29) @ 1670: uvm_test_top.env.s [SCO] SLV ERROR during WRITE OP
# ----------------------------------------------------------------
# UVM_INFO ../uvc/env/apb_ram_driver.sv(64) @ 1690: uvm_test_top.env.a.d [DRV] mode:writed, addr:84, wdata:938073799, rdata:0, slverr:0
# UVM_INFO ../uvc/env/apb_ram_scoreboard.sv(29) @ 1730: uvm_test_top.env.s [SCO] SLV ERROR during WRITE OP
# ----------------------------------------------------------------
# UVM_INFO ../uvc/env/apb_ram_driver.sv(64) @ 1750: uvm_test_top.env.a.d [DRV] mode:writed, addr:51, wdata:3644635849, rdata:0, slverr:0
# UVM_INFO ../uvc/env/apb_ram_scoreboard.sv(29) @ 1790: uvm_test_top.env.s [SCO] SLV ERROR during WRITE OP
# ----------------------------------------------------------------
# UVM_INFO ../uvc/env/apb_ram_driver.sv(64) @ 1810: uvm_test_top.env.a.d [DRV] mode:writed, addr:59, wdata:2295673994, rdata:0, slverr:0
# UVM_INFO ../uvc/env/apb_ram_scoreboard.sv(29) @ 1850: uvm_test_top.env.s [SCO] SLV ERROR during WRITE OP
# ----------------------------------------------------------------
# UVM_INFO ../uvc/env/apb_ram_driver.sv(64) @ 1870: uvm_test_top.env.a.d [DRV] mode:writed, addr:78, wdata:4236171247, rdata:0, slverr:0
# UVM_INFO ../uvc/env/apb_ram_scoreboard.sv(29) @ 1910: uvm_test_top.env.s [SCO] SLV ERROR during WRITE OP
# ----------------------------------------------------------------
# UVM_INFO ../uvc/env/apb_ram_driver.sv(64) @ 1930: uvm_test_top.env.a.d [DRV] mode:writed, addr:62, wdata:812920989, rdata:0, slverr:0
# UVM_INFO ../uvc/env/apb_ram_scoreboard.sv(29) @ 1970: uvm_test_top.env.s [SCO] SLV ERROR during WRITE OP
# ----------------------------------------------------------------
# UVM_INFO ../uvc/env/apb_ram_driver.sv(64) @ 1990: uvm_test_top.env.a.d [DRV] mode:writed, addr:82, wdata:842572445, rdata:0, slverr:0
# UVM_INFO ../uvc/env/apb_ram_scoreboard.sv(29) @ 2030: uvm_test_top.env.s [SCO] SLV ERROR during WRITE OP
# ----------------------------------------------------------------
# UVM_INFO ../uvc/env/apb_ram_driver.sv(64) @ 2050: uvm_test_top.env.a.d [DRV] mode:writed, addr:76, wdata:1408008632, rdata:0, slverr:0
# UVM_INFO ../uvc/env/apb_ram_scoreboard.sv(29) @ 2090: uvm_test_top.env.s [SCO] SLV ERROR during WRITE OP
# ----------------------------------------------------------------
# UVM_INFO ../uvc/env/apb_ram_driver.sv(64) @ 2110: uvm_test_top.env.a.d [DRV] mode:writed, addr:85, wdata:1728061235, rdata:0, slverr:0
# UVM_INFO ../uvc/env/apb_ram_scoreboard.sv(29) @ 2150: uvm_test_top.env.s [SCO] SLV ERROR during WRITE OP
# ----------------------------------------------------------------
# UVM_INFO ../uvc/env/apb_ram_driver.sv(64) @ 2170: uvm_test_top.env.a.d [DRV] mode:writed, addr:45, wdata:2370165681, rdata:0, slverr:0
# UVM_INFO ../uvc/env/apb_ram_scoreboard.sv(29) @ 2210: uvm_test_top.env.s [SCO] SLV ERROR during WRITE OP
# ----------------------------------------------------------------
# UVM_INFO ../uvc/env/apb_ram_driver.sv(64) @ 2230: uvm_test_top.env.a.d [DRV] mode:writed, addr:66, wdata:3534544320, rdata:0, slverr:0
# UVM_INFO ../uvc/env/apb_ram_scoreboard.sv(29) @ 2270: uvm_test_top.env.s [SCO] SLV ERROR during WRITE OP
# ----------------------------------------------------------------
# UVM_INFO ../uvc/env/apb_ram_driver.sv(64) @ 2290: uvm_test_top.env.a.d [DRV] mode:writed, addr:91, wdata:2442776198, rdata:0, slverr:0
# UVM_INFO ../uvc/env/apb_ram_scoreboard.sv(29) @ 2330: uvm_test_top.env.s [SCO] SLV ERROR during WRITE OP
# ----------------------------------------------------------------
# UVM_INFO ../uvc/env/apb_ram_driver.sv(64) @ 2350: uvm_test_top.env.a.d [DRV] mode:writed, addr:50, wdata:2614382870, rdata:0, slverr:0
# UVM_INFO ../uvc/env/apb_ram_scoreboard.sv(29) @ 2390: uvm_test_top.env.s [SCO] SLV ERROR during WRITE OP
# ----------------------------------------------------------------
# UVM_INFO ../uvc/env/apb_ram_driver.sv(64) @ 2410: uvm_test_top.env.a.d [DRV] mode:writed, addr:92, wdata:1814544769, rdata:0, slverr:0
# UVM_INFO ../uvc/env/apb_ram_scoreboard.sv(29) @ 2450: uvm_test_top.env.s [SCO] SLV ERROR during WRITE OP
# ----------------------------------------------------------------
# UVM_INFO ../uvc/env/apb_ram_driver.sv(64) @ 2470: uvm_test_top.env.a.d [DRV] mode:writed, addr:80, wdata:2646141795, rdata:0, slverr:0
# UVM_INFO ../uvc/env/apb_ram_scoreboard.sv(29) @ 2510: uvm_test_top.env.s [SCO] SLV ERROR during WRITE OP
# ----------------------------------------------------------------
# UVM_INFO ../uvc/env/apb_ram_driver.sv(64) @ 2530: uvm_test_top.env.a.d [DRV] mode:writed, addr:46, wdata:1225673380, rdata:0, slverr:0
# UVM_INFO ../uvc/env/apb_ram_scoreboard.sv(29) @ 2570: uvm_test_top.env.s [SCO] SLV ERROR during WRITE OP
# ----------------------------------------------------------------
# UVM_INFO ../uvc/env/apb_ram_driver.sv(64) @ 2590: uvm_test_top.env.a.d [DRV] mode:writed, addr:89, wdata:1967671799, rdata:0, slverr:0
# UVM_INFO ../uvc/env/apb_ram_scoreboard.sv(29) @ 2630: uvm_test_top.env.s [SCO] SLV ERROR during WRITE OP
# ----------------------------------------------------------------
# UVM_INFO ../uvc/env/apb_ram_driver.sv(64) @ 2650: uvm_test_top.env.a.d [DRV] mode:writed, addr:92, wdata:2412323114, rdata:0, slverr:0
# UVM_INFO ../uvc/env/apb_ram_scoreboard.sv(29) @ 2690: uvm_test_top.env.s [SCO] SLV ERROR during WRITE OP
# ----------------------------------------------------------------
# UVM_INFO ../uvc/env/apb_ram_driver.sv(64) @ 2710: uvm_test_top.env.a.d [DRV] mode:writed, addr:78, wdata:1496865130, rdata:0, slverr:0
# UVM_INFO ../uvc/env/apb_ram_scoreboard.sv(29) @ 2750: uvm_test_top.env.s [SCO] SLV ERROR during WRITE OP
# ----------------------------------------------------------------
# UVM_INFO ../uvc/env/apb_ram_driver.sv(64) @ 2770: uvm_test_top.env.a.d [DRV] mode:writed, addr:38, wdata:3007791890, rdata:0, slverr:0
# UVM_INFO ../uvc/env/apb_ram_scoreboard.sv(29) @ 2810: uvm_test_top.env.s [SCO] SLV ERROR during WRITE OP
# ----------------------------------------------------------------
# UVM_INFO ../uvc/env/apb_ram_driver.sv(64) @ 2830: uvm_test_top.env.a.d [DRV] mode:writed, addr:47, wdata:1654212079, rdata:0, slverr:0
# UVM_INFO ../uvc/env/apb_ram_scoreboard.sv(29) @ 2870: uvm_test_top.env.s [SCO] SLV ERROR during WRITE OP
# ----------------------------------------------------------------
# UVM_INFO ../uvc/env/apb_ram_driver.sv(64) @ 2890: uvm_test_top.env.a.d [DRV] mode:writed, addr:68, wdata:3373696266, rdata:0, slverr:0
# UVM_INFO ../uvc/env/apb_ram_scoreboard.sv(29) @ 2930: uvm_test_top.env.s [SCO] SLV ERROR during WRITE OP
# ----------------------------------------------------------------
# UVM_INFO ../uvc/env/apb_ram_driver.sv(64) @ 2950: uvm_test_top.env.a.d [DRV] mode:writed, addr:79, wdata:302863272, rdata:0, slverr:0
# UVM_INFO ../uvc/env/apb_ram_scoreboard.sv(29) @ 2990: uvm_test_top.env.s [SCO] SLV ERROR during WRITE OP
# ----------------------------------------------------------------
# UVM_INFO ../uvc/env/apb_ram_driver.sv(64) @ 3010: uvm_test_top.env.a.d [DRV] mode:writed, addr:41, wdata:2912410914, rdata:0, slverr:0
# UVM_INFO ../uvc/env/apb_ram_scoreboard.sv(29) @ 3050: uvm_test_top.env.s [SCO] SLV ERROR during WRITE OP
# ----------------------------------------------------------------
# UVM_INFO ../uvc/env/apb_ram_driver.sv(64) @ 3070: uvm_test_top.env.a.d [DRV] mode:writed, addr:46, wdata:1966490993, rdata:0, slverr:0
# UVM_INFO ../uvc/env/apb_ram_scoreboard.sv(29) @ 3110: uvm_test_top.env.s [SCO] SLV ERROR during WRITE OP
# ----------------------------------------------------------------
# UVM_INFO ../uvc/env/apb_ram_driver.sv(64) @ 3130: uvm_test_top.env.a.d [DRV] mode:writed, addr:61, wdata:709999995, rdata:0, slverr:0
# UVM_INFO ../uvc/env/apb_ram_scoreboard.sv(29) @ 3170: uvm_test_top.env.s [SCO] SLV ERROR during WRITE OP
# ----------------------------------------------------------------
# UVM_INFO ../uvc/env/apb_ram_driver.sv(64) @ 3190: uvm_test_top.env.a.d [DRV] mode:writed, addr:53, wdata:1381038493, rdata:0, slverr:0
# UVM_INFO ../uvc/env/apb_ram_scoreboard.sv(29) @ 3230: uvm_test_top.env.s [SCO] SLV ERROR during WRITE OP
# ----------------------------------------------------------------
# UVM_INFO ../uvc/env/apb_ram_driver.sv(64) @ 3250: uvm_test_top.env.a.d [DRV] mode:writed, addr:86, wdata:4144100939, rdata:0, slverr:0
# UVM_INFO ../uvc/env/apb_ram_scoreboard.sv(29) @ 3290: uvm_test_top.env.s [SCO] SLV ERROR during WRITE OP
# ----------------------------------------------------------------
# UVM_INFO ../uvc/env/apb_ram_driver.sv(64) @ 3310: uvm_test_top.env.a.d [DRV] mode:writed, addr:79, wdata:892512377, rdata:0, slverr:0
# UVM_INFO ../uvc/env/apb_ram_scoreboard.sv(29) @ 3350: uvm_test_top.env.s [SCO] SLV ERROR during WRITE OP
# ----------------------------------------------------------------
# UVM_INFO ../uvc/env/apb_ram_driver.sv(64) @ 3370: uvm_test_top.env.a.d [DRV] mode:writed, addr:74, wdata:3578429675, rdata:0, slverr:0
# UVM_INFO ../uvc/env/apb_ram_scoreboard.sv(29) @ 3410: uvm_test_top.env.s [SCO] SLV ERROR during WRITE OP
# ----------------------------------------------------------------
# UVM_INFO ../uvc/env/apb_ram_driver.sv(64) @ 3430: uvm_test_top.env.a.d [DRV] mode:writed, addr:97, wdata:2582529987, rdata:0, slverr:0
# UVM_INFO ../uvc/env/apb_ram_scoreboard.sv(29) @ 3470: uvm_test_top.env.s [SCO] SLV ERROR during WRITE OP
# ----------------------------------------------------------------
# UVM_INFO ../uvc/env/apb_ram_driver.sv(64) @ 3490: uvm_test_top.env.a.d [DRV] mode:writed, addr:63, wdata:3985947039, rdata:0, slverr:0
# UVM_INFO ../uvc/env/apb_ram_scoreboard.sv(29) @ 3530: uvm_test_top.env.s [SCO] SLV ERROR during WRITE OP
# ----------------------------------------------------------------
# UVM_INFO ../uvc/env/apb_ram_driver.sv(64) @ 3550: uvm_test_top.env.a.d [DRV] mode:writed, addr:93, wdata:2766433457, rdata:0, slverr:0
# UVM_INFO ../uvc/env/apb_ram_scoreboard.sv(29) @ 3590: uvm_test_top.env.s [SCO] SLV ERROR during WRITE OP
# ----------------------------------------------------------------
# UVM_INFO ../uvc/env/apb_ram_driver.sv(64) @ 3610: uvm_test_top.env.a.d [DRV] mode:writed, addr:73, wdata:4007790511, rdata:0, slverr:0
# UVM_INFO ../uvc/env/apb_ram_scoreboard.sv(29) @ 3650: uvm_test_top.env.s [SCO] SLV ERROR during WRITE OP
# ----------------------------------------------------------------
# UVM_INFO ../uvc/env/apb_ram_driver.sv(64) @ 3670: uvm_test_top.env.a.d [DRV] mode:writed, addr:53, wdata:736522590, rdata:0, slverr:0
# UVM_INFO ../uvc/env/apb_ram_scoreboard.sv(29) @ 3710: uvm_test_top.env.s [SCO] SLV ERROR during WRITE OP
# ----------------------------------------------------------------
# UVM_INFO ../uvc/env/apb_ram_driver.sv(64) @ 3730: uvm_test_top.env.a.d [DRV] mode:writed, addr:77, wdata:4022774536, rdata:0, slverr:0
# UVM_INFO ../uvc/env/apb_ram_scoreboard.sv(29) @ 3770: uvm_test_top.env.s [SCO] SLV ERROR during WRITE OP
# ----------------------------------------------------------------
# UVM_INFO ../uvc/env/apb_ram_driver.sv(64) @ 3790: uvm_test_top.env.a.d [DRV] mode:writed, addr:38, wdata:3012510934, rdata:0, slverr:0
# UVM_INFO ../uvc/env/apb_ram_scoreboard.sv(29) @ 3830: uvm_test_top.env.s [SCO] SLV ERROR during WRITE OP
# ----------------------------------------------------------------
# UVM_INFO ../uvc/env/apb_ram_driver.sv(64) @ 3850: uvm_test_top.env.a.d [DRV] mode:writed, addr:77, wdata:3611130099, rdata:0, slverr:0
# UVM_INFO ../uvc/env/apb_ram_scoreboard.sv(29) @ 3890: uvm_test_top.env.s [SCO] SLV ERROR during WRITE OP
# ----------------------------------------------------------------
# UVM_INFO ../uvc/env/apb_ram_driver.sv(64) @ 3910: uvm_test_top.env.a.d [DRV] mode:writed, addr:36, wdata:573725882, rdata:0, slverr:0
# UVM_INFO ../uvc/env/apb_ram_scoreboard.sv(29) @ 3950: uvm_test_top.env.s [SCO] SLV ERROR during WRITE OP
# ----------------------------------------------------------------
# UVM_INFO ../uvc/env/apb_ram_driver.sv(64) @ 3970: uvm_test_top.env.a.d [DRV] mode:writed, addr:73, wdata:2726042824, rdata:0, slverr:0
# UVM_INFO ../uvc/env/apb_ram_scoreboard.sv(29) @ 4010: uvm_test_top.env.s [SCO] SLV ERROR during WRITE OP
# ----------------------------------------------------------------
# UVM_INFO ../uvc/env/apb_ram_driver.sv(64) @ 4030: uvm_test_top.env.a.d [DRV] mode:writed, addr:92, wdata:1096171635, rdata:0, slverr:0
# UVM_INFO ../uvc/env/apb_ram_scoreboard.sv(29) @ 4070: uvm_test_top.env.s [SCO] SLV ERROR during WRITE OP
# ----------------------------------------------------------------
# UVM_INFO ../uvc/env/apb_ram_driver.sv(64) @ 4090: uvm_test_top.env.a.d [DRV] mode:writed, addr:94, wdata:4116889447, rdata:0, slverr:0
# UVM_INFO ../uvc/env/apb_ram_scoreboard.sv(29) @ 4130: uvm_test_top.env.s [SCO] SLV ERROR during WRITE OP
# ----------------------------------------------------------------
# UVM_INFO ../uvc/env/apb_ram_driver.sv(64) @ 4150: uvm_test_top.env.a.d [DRV] mode:writed, addr:94, wdata:1609299050, rdata:0, slverr:0
# UVM_INFO ../uvc/env/apb_ram_scoreboard.sv(29) @ 4190: uvm_test_top.env.s [SCO] SLV ERROR during WRITE OP
# ----------------------------------------------------------------
# UVM_INFO ../uvc/env/apb_ram_driver.sv(64) @ 4210: uvm_test_top.env.a.d [DRV] mode:writed, addr:82, wdata:1721030693, rdata:0, slverr:0
# UVM_INFO ../uvc/env/apb_ram_scoreboard.sv(29) @ 4250: uvm_test_top.env.s [SCO] SLV ERROR during WRITE OP
# ----------------------------------------------------------------
# UVM_INFO ../uvc/env/apb_ram_driver.sv(64) @ 4270: uvm_test_top.env.a.d [DRV] mode:writed, addr:92, wdata:1907405854, rdata:0, slverr:0
# UVM_INFO ../uvc/env/apb_ram_scoreboard.sv(29) @ 4310: uvm_test_top.env.s [SCO] SLV ERROR during WRITE OP
# ----------------------------------------------------------------
# UVM_INFO ../uvc/env/apb_ram_driver.sv(64) @ 4330: uvm_test_top.env.a.d [DRV] mode:writed, addr:46, wdata:3615637079, rdata:0, slverr:0
# UVM_INFO ../uvc/env/apb_ram_scoreboard.sv(29) @ 4370: uvm_test_top.env.s [SCO] SLV ERROR during WRITE OP
# ----------------------------------------------------------------
# UVM_INFO ../uvc/env/apb_ram_driver.sv(64) @ 4390: uvm_test_top.env.a.d [DRV] mode:writed, addr:36, wdata:2567223576, rdata:0, slverr:0
# UVM_INFO ../uvc/env/apb_ram_scoreboard.sv(29) @ 4430: uvm_test_top.env.s [SCO] SLV ERROR during WRITE OP
# ----------------------------------------------------------------
# UVM_INFO ../uvc/env/apb_ram_driver.sv(64) @ 4450: uvm_test_top.env.a.d [DRV] mode:writed, addr:39, wdata:344372223, rdata:0, slverr:0
# UVM_INFO ../uvc/env/apb_ram_scoreboard.sv(29) @ 4490: uvm_test_top.env.s [SCO] SLV ERROR during WRITE OP
# ----------------------------------------------------------------
# UVM_INFO ../uvc/env/apb_ram_driver.sv(64) @ 4510: uvm_test_top.env.a.d [DRV] mode:writed, addr:47, wdata:847442581, rdata:0, slverr:0
# UVM_INFO ../uvc/env/apb_ram_scoreboard.sv(29) @ 4550: uvm_test_top.env.s [SCO] SLV ERROR during WRITE OP
# ----------------------------------------------------------------
