sim/logs/write_test.log
# vsim -c -coverage top "+UVM_TESTNAME=write_test" -voptargs="+acc" -assertdebug -l logs/write_test.log -do "coverage save -onexit cov/write_test.ucdb; run -all; quit" 
# Start time: 17:26:42 on Jan 15,2026
# ** Note: (vsim-3812) Design is being optimized...
# ** Note: (vopt-143) Recognized 1 FSM in module "apb_ram(fast)".
# //  Questa Sim-64
# //  Version 10.7c win64 Aug 18 2018
# //
# //  Copyright 1991-2018 Mentor Graphics Corporation
# //  All Rights Reserved.
# //
# //  QuestaSim and its associated documentation contain trade
# //  secrets and commercial or financial information that are the property of
# //  Mentor Graphics Corporation and are privileged, confidential,
# //  and exempt from disclosure under the Freedom of Information Act,
# //  5 U.S.C. Section 552. Furthermore, this information
# //  is prohibited from disclosure under the Trade Secrets Act,
# //  18 U.S.C. Section 1905.
# //
# Loading sv_std.std
# Loading work.apb_if(fast)
# Loading mtiUvm.uvm_pkg
# Loading work.apb_ram_pkg(fast)
# Loading work.top_sv_unit(fast)
# Loading work.top(fast)
# Loading work.apb_if(fast)
# Loading work.apb_ram(fast)
# Loading mtiUvm.questa_uvm_pkg(fast)
# Loading D:/questasim_b_install/uvm-1.1d\win64\uvm_dpi.dll
# coverage save -onexit cov/write_test.ucdb
#  run -all
# ----------------------------------------------------------------
# UVM-1.1d
# (C) 2007-2013 Mentor Graphics Corporation
# (C) 2007-2013 Cadence Design Systems, Inc.
# (C) 2006-2013 Synopsys, Inc.
# (C) 2011-2013 Cypress Semiconductor Corp.
# ----------------------------------------------------------------
# 
#   ***********       IMPORTANT RELEASE NOTES         ************
# 
#   You are using a version of the UVM library that has been compiled
#   with `UVM_NO_DEPRECATED undefined.
#   See http://www.eda.org/svdb/view.php?id=3313 for more details.
# 
#   You are using a version of the UVM library that has been compiled
#   with `UVM_OBJECT_MUST_HAVE_CONSTRUCTOR undefined.
#   See http://www.eda.org/svdb/view.php?id=3770 for more details.
# 
#       (Specify +UVM_NO_RELNOTES to turn off this notice)
# 
# UVM_INFO verilog_src/questa_uvm_pkg-1.2/src/questa_uvm_pkg.sv(215) @ 0: reporter [Questa UVM] QUESTA_UVM-1.2.3
# UVM_INFO verilog_src/questa_uvm_pkg-1.2/src/questa_uvm_pkg.sv(216) @ 0: reporter [Questa UVM]  questa_uvm::init(+struct)
# UVM_INFO @ 0: reporter [RNTST] Running test write_test...
# UVM_INFO @ 0: reporter [UVMTOP] UVM testbench topology:
# --------------------------------------------------------------
# Name                       Type                    Size  Value
# --------------------------------------------------------------
# uvm_test_top               write_test              -     @471 
#   env                      apb_ram_env             -     @478 
#     a                      apb_ram_agent           -     @485 
#       d                    apb_ram_driver          -     @523 
#         rsp_port           uvm_analysis_port       -     @538 
#         seq_item_port      uvm_seq_item_pull_port  -     @530 
#       m                    apb_ram_monitor         -     @516 
#         item_send_port     uvm_analysis_port       -     @664 
#       seqr                 uvm_sequencer           -     @546 
#         rsp_export         uvm_analysis_export     -     @553 
#         seq_item_export    uvm_seq_item_pull_imp   -     @647 
#         arbitration_queue  array                   0     -    
#         lock_queue         array                   0     -    
#         num_last_reqs      integral                32    'd1  
#         num_last_rsps      integral                32    'd1  
#     cov                    apb_ram_coverage        -     @499 
#       analysis_imp         uvm_analysis_imp        -     @506 
#     s                      apb_ram_scoreboard      -     @492 
#       item_recv_imp        uvm_analysis_imp        -     @678 
# --------------------------------------------------------------
# 
# UVM_INFO ../uvc/env/apb_ram_driver.sv(32) @ 0: uvm_test_top.env.a.d [DRV] System Reset : Start of Simulation
# UVM_INFO ../uvc/env/apb_ram_driver.sv(32) @ 10: uvm_test_top.env.a.d [DRV] System Reset : Start of Simulation
# UVM_INFO ../uvc/env/apb_ram_scoreboard.sv(23) @ 10: uvm_test_top.env.s [SCO] SYSTEM RESET DETECTED
# ----------------------------------------------------------------
# UVM_INFO ../uvc/env/apb_ram_scoreboard.sv(23) @ 30: uvm_test_top.env.s [SCO] SYSTEM RESET DETECTED
# ----------------------------------------------------------------
# UVM_INFO ../uvc/env/apb_ram_driver.sv(32) @ 30: uvm_test_top.env.a.d [DRV] System Reset : Start of Simulation
# UVM_INFO ../uvc/env/apb_ram_driver.sv(32) @ 50: uvm_test_top.env.a.d [DRV] System Reset : Start of Simulation
# UVM_INFO ../uvc/env/apb_ram_scoreboard.sv(23) @ 50: uvm_test_top.env.s [SCO] SYSTEM RESET DETECTED
# ----------------------------------------------------------------
# UVM_INFO ../uvc/env/apb_ram_scoreboard.sv(23) @ 70: uvm_test_top.env.s [SCO] SYSTEM RESET DETECTED
# ----------------------------------------------------------------
# UVM_INFO ../uvc/env/apb_ram_driver.sv(32) @ 70: uvm_test_top.env.a.d [DRV] System Reset : Start of Simulation
# UVM_INFO ../uvc/env/apb_ram_scoreboard.sv(23) @ 90: uvm_test_top.env.s [SCO] SYSTEM RESET DETECTED
# ----------------------------------------------------------------
# UVM_INFO ../uvc/env/apb_ram_driver.sv(64) @ 110: uvm_test_top.env.a.d [DRV] mode:writed, addr:9, wdata:3777248807, rdata:0, slverr:0
# UVM_INFO ../uvc/env/apb_ram_scoreboard.sv(34) @ 170: uvm_test_top.env.s [SCO] DATA WRITE OP  addr:9, wdata:3777248807 arr_wr:3777248807
# ----------------------------------------------------------------
# UVM_INFO ../uvc/env/apb_ram_driver.sv(64) @ 190: uvm_test_top.env.a.d [DRV] mode:writed, addr:6, wdata:2285552022, rdata:0, slverr:0
# UVM_INFO ../uvc/env/apb_ram_scoreboard.sv(34) @ 230: uvm_test_top.env.s [SCO] DATA WRITE OP  addr:6, wdata:2285552022 arr_wr:2285552022
# ----------------------------------------------------------------
# UVM_INFO ../uvc/env/apb_ram_driver.sv(64) @ 250: uvm_test_top.env.a.d [DRV] mode:writed, addr:19, wdata:4281818903, rdata:0, slverr:0
# UVM_INFO ../uvc/env/apb_ram_scoreboard.sv(34) @ 290: uvm_test_top.env.s [SCO] DATA WRITE OP  addr:19, wdata:4281818903 arr_wr:4281818903
# ----------------------------------------------------------------
# UVM_INFO ../uvc/env/apb_ram_driver.sv(64) @ 310: uvm_test_top.env.a.d [DRV] mode:writed, addr:20, wdata:1051481594, rdata:0, slverr:0
# UVM_INFO ../uvc/env/apb_ram_scoreboard.sv(34) @ 350: uvm_test_top.env.s [SCO] DATA WRITE OP  addr:20, wdata:1051481594 arr_wr:1051481594
# ----------------------------------------------------------------
# UVM_INFO ../uvc/env/apb_ram_driver.sv(64) @ 370: uvm_test_top.env.a.d [DRV] mode:writed, addr:31, wdata:1430793613, rdata:0, slverr:0
# UVM_INFO ../uvc/env/apb_ram_scoreboard.sv(34) @ 410: uvm_test_top.env.s [SCO] DATA WRITE OP  addr:31, wdata:1430793613 arr_wr:1430793613
# ----------------------------------------------------------------
# UVM_INFO ../uvc/env/apb_ram_driver.sv(64) @ 430: uvm_test_top.env.a.d [DRV] mode:writed, addr:22, wdata:3171452607, rdata:0, slverr:0
# UVM_INFO ../uvc/env/apb_ram_scoreboard.sv(34) @ 470: uvm_test_top.env.s [SCO] DATA WRITE OP  addr:22, wdata:3171452607 arr_wr:3171452607
# ----------------------------------------------------------------
# UVM_INFO ../uvc/env/apb_ram_driver.sv(64) @ 490: uvm_test_top.env.a.d [DRV] mode:writed, addr:0, wdata:2337079852, rdata:0, slverr:0
# UVM_INFO ../uvc/env/apb_ram_scoreboard.sv(34) @ 530: uvm_test_top.env.s [SCO] DATA WRITE OP  addr:0, wdata:2337079852 arr_wr:2337079852
# ----------------------------------------------------------------
# UVM_INFO ../uvc/env/apb_ram_driver.sv(64) @ 550: uvm_test_top.env.a.d [DRV] mode:writed, addr:4, wdata:3353941321, rdata:0, slverr:0
# UVM_INFO ../uvc/env/apb_ram_scoreboard.sv(34) @ 590: uvm_test_top.env.s [SCO] DATA WRITE OP  addr:4, wdata:3353941321 arr_wr:3353941321
# ----------------------------------------------------------------
# UVM_INFO ../uvc/env/apb_ram_driver.sv(64) @ 610: uvm_test_top.env.a.d [DRV] mode:writed, addr:15, wdata:2729742768, rdata:0, slverr:0
# UVM_INFO ../uvc/env/apb_ram_scoreboard.sv(34) @ 650: uvm_test_top.env.s [SCO] DATA WRITE OP  addr:15, wdata:2729742768 arr_wr:2729742768
# ----------------------------------------------------------------
# UVM_INFO ../uvc/env/apb_ram_driver.sv(64) @ 670: uvm_test_top.env.a.d [DRV] mode:writed, addr:2, wdata:2528254870, rdata:0, slverr:0
# UVM_INFO ../uvc/env/apb_ram_scoreboard.sv(34) @ 710: uvm_test_top.env.s [SCO] DATA WRITE OP  addr:2, wdata:2528254870 arr_wr:2528254870
# ----------------------------------------------------------------
# UVM_INFO ../uvc/env/apb_ram_driver.sv(64) @ 730: uvm_test_top.env.a.d [DRV] mode:writed, addr:4, wdata:2518359749, rdata:0, slverr:0
# UVM_INFO ../uvc/env/apb_ram_scoreboard.sv(34) @ 770: uvm_test_top.env.s [SCO] DATA WRITE OP  addr:4, wdata:2518359749 arr_wr:2518359749
# ----------------------------------------------------------------
# UVM_INFO ../uvc/env/apb_ram_driver.sv(64) @ 790: uvm_test_top.env.a.d [DRV] mode:writed, addr:25, wdata:1888893185, rdata:0, slverr:0
# UVM_INFO ../uvc/env/apb_ram_scoreboard.sv(34) @ 830: uvm_test_top.env.s [SCO] DATA WRITE OP  addr:25, wdata:1888893185 arr_wr:1888893185
# ----------------------------------------------------------------
# UVM_INFO ../uvc/env/apb_ram_driver.sv(64) @ 850: uvm_test_top.env.a.d [DRV] mode:writed, addr:14, wdata:2912452960, rdata:0, slverr:0
# UVM_INFO ../uvc/env/apb_ram_scoreboard.sv(34) @ 890: uvm_test_top.env.s [SCO] DATA WRITE OP  addr:14, wdata:2912452960 arr_wr:2912452960
# ----------------------------------------------------------------
# UVM_INFO ../uvc/env/apb_ram_driver.sv(64) @ 910: uvm_test_top.env.a.d [DRV] mode:writed, addr:6, wdata:4191012750, rdata:0, slverr:0
# UVM_INFO ../uvc/env/apb_ram_scoreboard.sv(34) @ 950: uvm_test_top.env.s [SCO] DATA WRITE OP  addr:6, wdata:4191012750 arr_wr:4191012750
# ----------------------------------------------------------------
# UVM_INFO ../uvc/env/apb_ram_driver.sv(64) @ 970: uvm_test_top.env.a.d [DRV] mode:writed, addr:18, wdata:3892367503, rdata:0, slverr:0
# UVM_INFO ../uvc/env/apb_ram_scoreboard.sv(34) @ 1010: uvm_test_top.env.s [SCO] DATA WRITE OP  addr:18, wdata:3892367503 arr_wr:3892367503
# ----------------------------------------------------------------
# UVM_INFO ../uvc/env/apb_ram_driver.sv(64) @ 1030: uvm_test_top.env.a.d [DRV] mode:writed, addr:13, wdata:1981648891, rdata:0, slverr:0
# UVM_INFO ../uvc/env/apb_ram_scoreboard.sv(34) @ 1070: uvm_test_top.env.s [SCO] DATA WRITE OP  addr:13, wdata:1981648891 arr_wr:1981648891
# ----------------------------------------------------------------
# UVM_INFO ../uvc/env/apb_ram_driver.sv(64) @ 1090: uvm_test_top.env.a.d [DRV] mode:writed, addr:6, wdata:48946881, rdata:0, slverr:0
# UVM_INFO ../uvc/env/apb_ram_scoreboard.sv(34) @ 1130: uvm_test_top.env.s [SCO] DATA WRITE OP  addr:6, wdata:48946881 arr_wr:48946881
# ----------------------------------------------------------------
# UVM_INFO ../uvc/env/apb_ram_driver.sv(64) @ 1150: uvm_test_top.env.a.d [DRV] mode:writed, addr:28, wdata:3254385158, rdata:0, slverr:0
# UVM_INFO ../uvc/env/apb_ram_scoreboard.sv(34) @ 1190: uvm_test_top.env.s [SCO] DATA WRITE OP  addr:28, wdata:3254385158 arr_wr:3254385158
# ----------------------------------------------------------------
# UVM_INFO ../uvc/env/apb_ram_driver.sv(64) @ 1210: uvm_test_top.env.a.d [DRV] mode:writed, addr:6, wdata:3524547497, rdata:0, slverr:0
# UVM_INFO ../uvc/env/apb_ram_scoreboard.sv(34) @ 1250: uvm_test_top.env.s [SCO] DATA WRITE OP  addr:6, wdata:3524547497 arr_wr:3524547497
# ----------------------------------------------------------------
# UVM_INFO ../uvc/env/apb_ram_driver.sv(64) @ 1270: uvm_test_top.env.a.d [DRV] mode:writed, addr:8, wdata:3483282630, rdata:0, slverr:0
# UVM_INFO ../uvc/env/apb_ram_scoreboard.sv(34) @ 1310: uvm_test_top.env.s [SCO] DATA WRITE OP  addr:8, wdata:3483282630 arr_wr:3483282630
# ----------------------------------------------------------------
# UVM_INFO ../uvc/env/apb_ram_driver.sv(64) @ 1330: uvm_test_top.env.a.d [DRV] mode:writed, addr:21, wdata:2414337454, rdata:0, slverr:0
# UVM_INFO ../uvc/env/apb_ram_scoreboard.sv(34) @ 1370: uvm_test_top.env.s [SCO] DATA WRITE OP  addr:21, wdata:2414337454 arr_wr:2414337454
# ----------------------------------------------------------------
# UVM_INFO ../uvc/env/apb_ram_driver.sv(64) @ 1390: uvm_test_top.env.a.d [DRV] mode:writed, addr:0, wdata:114161314, rdata:0, slverr:0
# UVM_INFO ../uvc/env/apb_ram_scoreboard.sv(34) @ 1430: uvm_test_top.env.s [SCO] DATA WRITE OP  addr:0, wdata:114161314 arr_wr:114161314
# ----------------------------------------------------------------
# UVM_INFO ../uvc/env/apb_ram_driver.sv(64) @ 1450: uvm_test_top.env.a.d [DRV] mode:writed, addr:22, wdata:2384080836, rdata:0, slverr:0
# UVM_INFO ../uvc/env/apb_ram_scoreboard.sv(34) @ 1490: uvm_test_top.env.s [SCO] DATA WRITE OP  addr:22, wdata:2384080836 arr_wr:2384080836
# ----------------------------------------------------------------
# UVM_INFO ../uvc/env/apb_ram_driver.sv(64) @ 1510: uvm_test_top.env.a.d [DRV] mode:writed, addr:3, wdata:616727898, rdata:0, slverr:0
# UVM_INFO ../uvc/env/apb_ram_scoreboard.sv(34) @ 1550: uvm_test_top.env.s [SCO] DATA WRITE OP  addr:3, wdata:616727898 arr_wr:616727898
# ----------------------------------------------------------------
# UVM_INFO ../uvc/env/apb_ram_driver.sv(64) @ 1570: uvm_test_top.env.a.d [DRV] mode:writed, addr:18, wdata:4230033719, rdata:0, slverr:0
# UVM_INFO ../uvc/env/apb_ram_scoreboard.sv(34) @ 1610: uvm_test_top.env.s [SCO] DATA WRITE OP  addr:18, wdata:4230033719 arr_wr:4230033719
# ----------------------------------------------------------------
# UVM_INFO ../uvc/env/apb_ram_driver.sv(64) @ 1630: uvm_test_top.env.a.d [DRV] mode:writed, addr:24, wdata:3617292467, rdata:0, slverr:0
# UVM_INFO ../uvc/env/apb_ram_scoreboard.sv(34) @ 1670: uvm_test_top.env.s [SCO] DATA WRITE OP  addr:24, wdata:3617292467 arr_wr:3617292467
# ----------------------------------------------------------------
# UVM_INFO ../uvc/env/apb_ram_driver.sv(64) @ 1690: uvm_test_top.env.a.d [DRV] mode:writed, addr:14, wdata:938073799, rdata:0, slverr:0
# UVM_INFO ../uvc/env/apb_ram_scoreboard.sv(34) @ 1730: uvm_test_top.env.s [SCO] DATA WRITE OP  addr:14, wdata:938073799 arr_wr:938073799
# ----------------------------------------------------------------
# UVM_INFO ../uvc/env/apb_ram_driver.sv(64) @ 1750: uvm_test_top.env.a.d [DRV] mode:writed, addr:25, wdata:3644635849, rdata:0, slverr:0
# UVM_INFO ../uvc/env/apb_ram_scoreboard.sv(34) @ 1790: uvm_test_top.env.s [SCO] DATA WRITE OP  addr:25, wdata:3644635849 arr_wr:3644635849
# ----------------------------------------------------------------
# UVM_INFO ../uvc/env/apb_ram_driver.sv(64) @ 1810: uvm_test_top.env.a.d [DRV] mode:writed, addr:10, wdata:2295673994, rdata:0, slverr:0
# UVM_INFO ../uvc/env/apb_ram_scoreboard.sv(34) @ 1850: uvm_test_top.env.s [SCO] DATA WRITE OP  addr:10, wdata:2295673994 arr_wr:2295673994
# ----------------------------------------------------------------
# UVM_INFO ../uvc/env/apb_ram_driver.sv(64) @ 1870: uvm_test_top.env.a.d [DRV] mode:writed, addr:5, wdata:4236171247, rdata:0, slverr:0
# UVM_INFO ../uvc/env/apb_ram_scoreboard.sv(34) @ 1910: uvm_test_top.env.s [SCO] DATA WRITE OP  addr:5, wdata:4236171247 arr_wr:4236171247
# ----------------------------------------------------------------
# UVM_INFO ../uvc/env/apb_ram_driver.sv(64) @ 1930: uvm_test_top.env.a.d [DRV] mode:writed, addr:30, wdata:812920989, rdata:0, slverr:0
# UVM_INFO ../uvc/env/apb_ram_scoreboard.sv(34) @ 1970: uvm_test_top.env.s [SCO] DATA WRITE OP  addr:30, wdata:812920989 arr_wr:812920989
# ----------------------------------------------------------------
# UVM_INFO ../uvc/env/apb_ram_driver.sv(64) @ 1990: uvm_test_top.env.a.d [DRV] mode:writed, addr:14, wdata:842572445, rdata:0, slverr:0
# UVM_INFO ../uvc/env/apb_ram_scoreboard.sv(34) @ 2030: uvm_test_top.env.s [SCO] DATA WRITE OP  addr:14, wdata:842572445 arr_wr:842572445
# ----------------------------------------------------------------
# UVM_INFO ../uvc/env/apb_ram_driver.sv(64) @ 2050: uvm_test_top.env.a.d [DRV] mode:writed, addr:20, wdata:1408008632, rdata:0, slverr:0
# UVM_INFO ../uvc/env/apb_ram_scoreboard.sv(34) @ 2090: uvm_test_top.env.s [SCO] DATA WRITE OP  addr:20, wdata:1408008632 arr_wr:1408008632
# ----------------------------------------------------------------
# UVM_INFO ../uvc/env/apb_ram_driver.sv(64) @ 2110: uvm_test_top.env.a.d [DRV] mode:writed, addr:21, wdata:1728061235, rdata:0, slverr:0
# UVM_INFO ../uvc/env/apb_ram_scoreboard.sv(34) @ 2150: uvm_test_top.env.s [SCO] DATA WRITE OP  addr:21, wdata:1728061235 arr_wr:1728061235
# ----------------------------------------------------------------
# UVM_INFO ../uvc/env/apb_ram_driver.sv(64) @ 2170: uvm_test_top.env.a.d [DRV] mode:writed, addr:13, wdata:2370165681, rdata:0, slverr:0
# UVM_INFO ../uvc/env/apb_ram_scoreboard.sv(34) @ 2210: uvm_test_top.env.s [SCO] DATA WRITE OP  addr:13, wdata:2370165681 arr_wr:2370165681
# ----------------------------------------------------------------
# UVM_INFO ../uvc/env/apb_ram_driver.sv(64) @ 2230: uvm_test_top.env.a.d [DRV] mode:writed, addr:10, wdata:3534544320, rdata:0, slverr:0
# UVM_INFO ../uvc/env/apb_ram_scoreboard.sv(34) @ 2270: uvm_test_top.env.s [SCO] DATA WRITE OP  addr:10, wdata:3534544320 arr_wr:3534544320
# ----------------------------------------------------------------
# UVM_INFO ../uvc/env/apb_ram_driver.sv(64) @ 2290: uvm_test_top.env.a.d [DRV] mode:writed, addr:27, wdata:2442776198, rdata:0, slverr:0
# UVM_INFO ../uvc/env/apb_ram_scoreboard.sv(34) @ 2330: uvm_test_top.env.s [SCO] DATA WRITE OP  addr:27, wdata:2442776198 arr_wr:2442776198
# ----------------------------------------------------------------
# UVM_INFO ../uvc/env/apb_ram_driver.sv(64) @ 2350: uvm_test_top.env.a.d [DRV] mode:writed, addr:18, wdata:2614382870, rdata:0, slverr:0
# UVM_INFO ../uvc/env/apb_ram_scoreboard.sv(34) @ 2390: uvm_test_top.env.s [SCO] DATA WRITE OP  addr:18, wdata:2614382870 arr_wr:2614382870
# ----------------------------------------------------------------
# UVM_INFO ../uvc/env/apb_ram_driver.sv(64) @ 2410: uvm_test_top.env.a.d [DRV] mode:writed, addr:12, wdata:1814544769, rdata:0, slverr:0
# UVM_INFO ../uvc/env/apb_ram_scoreboard.sv(34) @ 2450: uvm_test_top.env.s [SCO] DATA WRITE OP  addr:12, wdata:1814544769 arr_wr:1814544769
# ----------------------------------------------------------------
# UVM_INFO ../uvc/env/apb_ram_driver.sv(64) @ 2470: uvm_test_top.env.a.d [DRV] mode:writed, addr:16, wdata:2646141795, rdata:0, slverr:0
# UVM_INFO ../uvc/env/apb_ram_scoreboard.sv(34) @ 2510: uvm_test_top.env.s [SCO] DATA WRITE OP  addr:16, wdata:2646141795 arr_wr:2646141795
# ----------------------------------------------------------------
# UVM_INFO ../uvc/env/apb_ram_driver.sv(64) @ 2530: uvm_test_top.env.a.d [DRV] mode:writed, addr:14, wdata:1225673380, rdata:0, slverr:0
# UVM_INFO ../uvc/env/apb_ram_scoreboard.sv(34) @ 2570: uvm_test_top.env.s [SCO] DATA WRITE OP  addr:14, wdata:1225673380 arr_wr:1225673380
# ----------------------------------------------------------------
# UVM_INFO ../uvc/env/apb_ram_driver.sv(64) @ 2590: uvm_test_top.env.a.d [DRV] mode:writed, addr:13, wdata:1967671799, rdata:0, slverr:0
# UVM_INFO ../uvc/env/apb_ram_scoreboard.sv(34) @ 2630: uvm_test_top.env.s [SCO] DATA WRITE OP  addr:13, wdata:1967671799 arr_wr:1967671799
# ----------------------------------------------------------------
# UVM_INFO ../uvc/env/apb_ram_driver.sv(64) @ 2650: uvm_test_top.env.a.d [DRV] mode:writed, addr:28, wdata:2412323114, rdata:0, slverr:0
# UVM_INFO ../uvc/env/apb_ram_scoreboard.sv(34) @ 2690: uvm_test_top.env.s [SCO] DATA WRITE OP  addr:28, wdata:2412323114 arr_wr:2412323114
# ----------------------------------------------------------------
# UVM_INFO ../uvc/env/apb_ram_driver.sv(64) @ 2710: uvm_test_top.env.a.d [DRV] mode:writed, addr:14, wdata:1496865130, rdata:0, slverr:0
# UVM_INFO ../uvc/env/apb_ram_scoreboard.sv(34) @ 2750: uvm_test_top.env.s [SCO] DATA WRITE OP  addr:14, wdata:1496865130 arr_wr:1496865130
# ----------------------------------------------------------------
# UVM_INFO ../uvc/env/apb_ram_driver.sv(64) @ 2770: uvm_test_top.env.a.d [DRV] mode:writed, addr:6, wdata:3007791890, rdata:0, slverr:0
# UVM_INFO ../uvc/env/apb_ram_scoreboard.sv(34) @ 2810: uvm_test_top.env.s [SCO] DATA WRITE OP  addr:6, wdata:3007791890 arr_wr:3007791890
# ----------------------------------------------------------------
# UVM_INFO ../uvc/env/apb_ram_driver.sv(64) @ 2830: uvm_test_top.env.a.d [DRV] mode:writed, addr:15, wdata:1654212079, rdata:0, slverr:0
# UVM_INFO ../uvc/env/apb_ram_scoreboard.sv(34) @ 2870: uvm_test_top.env.s [SCO] DATA WRITE OP  addr:15, wdata:1654212079 arr_wr:1654212079
# ----------------------------------------------------------------
# UVM_INFO ../uvc/env/apb_ram_driver.sv(64) @ 2890: uvm_test_top.env.a.d [DRV] mode:writed, addr:4, wdata:3373696266, rdata:0, slverr:0
# UVM_INFO ../uvc/env/apb_ram_scoreboard.sv(34) @ 2930: uvm_test_top.env.s [SCO] DATA WRITE OP  addr:4, wdata:3373696266 arr_wr:3373696266
# ----------------------------------------------------------------
# UVM_INFO ../uvc/env/apb_ram_driver.sv(64) @ 2950: uvm_test_top.env.a.d [DRV] mode:writed, addr:15, wdata:302863272, rdata:0, slverr:0
# UVM_INFO ../uvc/env/apb_ram_scoreboard.sv(34) @ 2990: uvm_test_top.env.s [SCO] DATA WRITE OP  addr:15, wdata:302863272 arr_wr:302863272
# ----------------------------------------------------------------
# UVM_INFO ../uvc/env/apb_ram_driver.sv(64) @ 3010: uvm_test_top.env.a.d [DRV] mode:writed, addr:9, wdata:2912410914, rdata:0, slverr:0
# UVM_INFO ../uvc/env/apb_ram_scoreboard.sv(34) @ 3050: uvm_test_top.env.s [SCO] DATA WRITE OP  addr:9, wdata:2912410914 arr_wr:2912410914
# ----------------------------------------------------------------
# UVM_INFO ../uvc/env/apb_ram_driver.sv(64) @ 3070: uvm_test_top.env.a.d [DRV] mode:writed, addr:14, wdata:1966490993, rdata:0, slverr:0
# UVM_INFO ../uvc/env/apb_ram_scoreboard.sv(34) @ 3110: uvm_test_top.env.s [SCO] DATA WRITE OP  addr:14, wdata:1966490993 arr_wr:1966490993
# ----------------------------------------------------------------
# UVM_INFO ../uvc/env/apb_ram_driver.sv(64) @ 3130: uvm_test_top.env.a.d [DRV] mode:writed, addr:15, wdata:709999995, rdata:0, slverr:0
# UVM_INFO ../uvc/env/apb_ram_scoreboard.sv(34) @ 3170: uvm_test_top.env.s [SCO] DATA WRITE OP  addr:15, wdata:709999995 arr_wr:709999995
# ----------------------------------------------------------------
# UVM_INFO ../uvc/env/apb_ram_driver.sv(64) @ 3190: uvm_test_top.env.a.d [DRV] mode:writed, addr:6, wdata:1381038493, rdata:0, slverr:0
# UVM_INFO ../uvc/env/apb_ram_scoreboard.sv(34) @ 3230: uvm_test_top.env.s [SCO] DATA WRITE OP  addr:6, wdata:1381038493 arr_wr:1381038493
# ----------------------------------------------------------------
# UVM_INFO ../uvc/env/apb_ram_driver.sv(64) @ 3250: uvm_test_top.env.a.d [DRV] mode:writed, addr:15, wdata:4144100939, rdata:0, slverr:0
# UVM_INFO ../uvc/env/apb_ram_scoreboard.sv(34) @ 3290: uvm_test_top.env.s [SCO] DATA WRITE OP  addr:15, wdata:4144100939 arr_wr:4144100939
# ----------------------------------------------------------------
# UVM_INFO ../uvc/env/apb_ram_driver.sv(64) @ 3310: uvm_test_top.env.a.d [DRV] mode:writed, addr:27, wdata:892512377, rdata:0, slverr:0
# UVM_INFO ../uvc/env/apb_ram_scoreboard.sv(34) @ 3350: uvm_test_top.env.s [SCO] DATA WRITE OP  addr:27, wdata:892512377 arr_wr:892512377
# ----------------------------------------------------------------
# UVM_INFO ../uvc/env/apb_ram_driver.sv(64) @ 3370: uvm_test_top.env.a.d [DRV] mode:writed, addr:10, wdata:3578429675, rdata:0, slverr:0
# UVM_INFO ../uvc/env/apb_ram_scoreboard.sv(34) @ 3410: uvm_test_top.env.s [SCO] DATA WRITE OP  addr:10, wdata:3578429675 arr_wr:3578429675
# ----------------------------------------------------------------
# UVM_INFO ../uvc/env/apb_ram_driver.sv(64) @ 3430: uvm_test_top.env.a.d [DRV] mode:writed, addr:19, wdata:2582529987, rdata:0, slverr:0
# UVM_INFO ../uvc/env/apb_ram_scoreboard.sv(34) @ 3470: uvm_test_top.env.s [SCO] DATA WRITE OP  addr:19, wdata:2582529987 arr_wr:2582529987
# ----------------------------------------------------------------
# UVM_INFO ../uvc/env/apb_ram_driver.sv(64) @ 3490: uvm_test_top.env.a.d [DRV] mode:writed, addr:31, wdata:3985947039, rdata:0, slverr:0
# UVM_INFO ../uvc/env/apb_ram_scoreboard.sv(34) @ 3530: uvm_test_top.env.s [SCO] DATA WRITE OP  addr:31, wdata:3985947039 arr_wr:3985947039
# ----------------------------------------------------------------
# UVM_INFO ../uvc/env/apb_ram_driver.sv(64) @ 3550: uvm_test_top.env.a.d [DRV] mode:writed, addr:29, wdata:2766433457, rdata:0, slverr:0
# UVM_INFO ../uvc/env/apb_ram_scoreboard.sv(34) @ 3590: uvm_test_top.env.s [SCO] DATA WRITE OP  addr:29, wdata:2766433457 arr_wr:2766433457
# ----------------------------------------------------------------
# UVM_INFO ../uvc/env/apb_ram_driver.sv(64) @ 3610: uvm_test_top.env.a.d [DRV] mode:writed, addr:10, wdata:4007790511, rdata:0, slverr:0
# UVM_INFO ../uvc/env/apb_ram_scoreboard.sv(34) @ 3650: uvm_test_top.env.s [SCO] DATA WRITE OP  addr:10, wdata:4007790511 arr_wr:4007790511
# ----------------------------------------------------------------
# UVM_INFO ../uvc/env/apb_ram_driver.sv(64) @ 3670: uvm_test_top.env.a.d [DRV] mode:writed, addr:21, wdata:736522590, rdata:0, slverr:0
# UVM_INFO ../uvc/env/apb_ram_scoreboard.sv(34) @ 3710: uvm_test_top.env.s [SCO] DATA WRITE OP  addr:21, wdata:736522590 arr_wr:736522590
# ----------------------------------------------------------------
# UVM_INFO ../uvc/env/apb_ram_driver.sv(64) @ 3730: uvm_test_top.env.a.d [DRV] mode:writed, addr:25, wdata:4022774536, rdata:0, slverr:0
# UVM_INFO ../uvc/env/apb_ram_scoreboard.sv(34) @ 3770: uvm_test_top.env.s [SCO] DATA WRITE OP  addr:25, wdata:4022774536 arr_wr:4022774536
# ----------------------------------------------------------------
# UVM_INFO ../uvc/env/apb_ram_driver.sv(64) @ 3790: uvm_test_top.env.a.d [DRV] mode:writed, addr:6, wdata:3012510934, rdata:0, slverr:0
# UVM_INFO ../uvc/env/apb_ram_scoreboard.sv(34) @ 3830: uvm_test_top.env.s [SCO] DATA WRITE OP  addr:6, wdata:3012510934 arr_wr:3012510934
# ----------------------------------------------------------------
# UVM_INFO ../uvc/env/apb_ram_driver.sv(64) @ 3850: uvm_test_top.env.a.d [DRV] mode:writed, addr:13, wdata:3611130099, rdata:0, slverr:0
# UVM_INFO ../uvc/env/apb_ram_scoreboard.sv(34) @ 3890: uvm_test_top.env.s [SCO] DATA WRITE OP  addr:13, wdata:3611130099 arr_wr:3611130099
# ----------------------------------------------------------------
# UVM_INFO ../uvc/env/apb_ram_driver.sv(64) @ 3910: uvm_test_top.env.a.d [DRV] mode:writed, addr:4, wdata:573725882, rdata:0, slverr:0
# UVM_INFO ../uvc/env/apb_ram_scoreboard.sv(34) @ 3950: uvm_test_top.env.s [SCO] DATA WRITE OP  addr:4, wdata:573725882 arr_wr:573725882
# ----------------------------------------------------------------
# UVM_INFO ../uvc/env/apb_ram_driver.sv(64) @ 3970: uvm_test_top.env.a.d [DRV] mode:writed, addr:9, wdata:2726042824, rdata:0, slverr:0
# UVM_INFO ../uvc/env/apb_ram_scoreboard.sv(34) @ 4010: uvm_test_top.env.s [SCO] DATA WRITE OP  addr:9, wdata:2726042824 arr_wr:2726042824
# ----------------------------------------------------------------
# UVM_INFO ../uvc/env/apb_ram_driver.sv(64) @ 4030: uvm_test_top.env.a.d [DRV] mode:writed, addr:28, wdata:1096171635, rdata:0, slverr:0
# UVM_INFO ../uvc/env/apb_ram_scoreboard.sv(34) @ 4070: uvm_test_top.env.s [SCO] DATA WRITE OP  addr:28, wdata:1096171635 arr_wr:1096171635
# ----------------------------------------------------------------
